%YAML 1.1
%TAG !u! tag:unity3d.com,2011:
--- !u!1 &3690398535352926932
GameObject:
  m_ObjectHideFlags: 0
  m_CorrespondingSourceObject: {fileID: 0}
  m_PrefabInstance: {fileID: 0}
  m_PrefabAsset: {fileID: 0}
  serializedVersion: 6
  m_Component:
  - component: {fileID: 4965801776342021402}
  - component: {fileID: 6017736772861686000}
  m_Layer: 0
  m_Name: Asid
  m_TagString: Untagged
  m_Icon: {fileID: 0}
  m_NavMeshLayer: 0
  m_StaticEditorFlags: 0
  m_IsActive: 1
--- !u!4 &4965801776342021402
Transform:
  m_ObjectHideFlags: 0
  m_CorrespondingSourceObject: {fileID: 0}
  m_PrefabInstance: {fileID: 0}
  m_PrefabAsset: {fileID: 0}
  m_GameObject: {fileID: 3690398535352926932}
  m_LocalRotation: {x: 0, y: 0, z: 0, w: 1}
  m_LocalPosition: {x: 0, y: 0, z: 0}
  m_LocalScale: {x: 1, y: 1, z: 1}
  m_ConstrainProportionsScale: 0
  m_Children:
  - {fileID: 6167561503740022960}
  m_Father: {fileID: 0}
  m_RootOrder: 0
  m_LocalEulerAnglesHint: {x: 0, y: 0, z: 0}
--- !u!156049354 &6017736772861686000
Grid:
  m_ObjectHideFlags: 0
  m_CorrespondingSourceObject: {fileID: 0}
  m_PrefabInstance: {fileID: 0}
  m_PrefabAsset: {fileID: 0}
  m_GameObject: {fileID: 3690398535352926932}
  m_Enabled: 1
  m_CellSize: {x: 1, y: 1, z: 0}
  m_CellGap: {x: 0, y: 0, z: 0}
  m_CellLayout: 0
  m_CellSwizzle: 0
--- !u!1 &4527427120711901791
GameObject:
  m_ObjectHideFlags: 0
  m_CorrespondingSourceObject: {fileID: 0}
  m_PrefabInstance: {fileID: 0}
  m_PrefabAsset: {fileID: 0}
  serializedVersion: 6
  m_Component:
  - component: {fileID: 6167561503740022960}
  - component: {fileID: 3113345399130099270}
  - component: {fileID: 6621908864063126811}
  m_Layer: 0
  m_Name: Layer1
  m_TagString: Untagged
  m_Icon: {fileID: 0}
  m_NavMeshLayer: 0
  m_StaticEditorFlags: 0
  m_IsActive: 1
--- !u!4 &6167561503740022960
Transform:
  m_ObjectHideFlags: 0
  m_CorrespondingSourceObject: {fileID: 0}
  m_PrefabInstance: {fileID: 0}
  m_PrefabAsset: {fileID: 0}
  m_GameObject: {fileID: 4527427120711901791}
  m_LocalRotation: {x: -0, y: -0, z: -0, w: 1}
  m_LocalPosition: {x: 0, y: 0, z: 0}
  m_LocalScale: {x: 1, y: 1, z: 1}
  m_ConstrainProportionsScale: 0
  m_Children: []
  m_Father: {fileID: 4965801776342021402}
  m_RootOrder: 0
  m_LocalEulerAnglesHint: {x: 0, y: 0, z: 0}
--- !u!1839735485 &3113345399130099270
Tilemap:
  m_ObjectHideFlags: 0
  m_CorrespondingSourceObject: {fileID: 0}
  m_PrefabInstance: {fileID: 0}
  m_PrefabAsset: {fileID: 0}
  m_GameObject: {fileID: 4527427120711901791}
  m_Enabled: 1
  m_Tiles:
  - first: {x: -1, y: -10, z: 0}
    second:
      serializedVersion: 2
      m_TileIndex: 17
      m_TileSpriteIndex: 17
      m_TileMatrixIndex: 0
      m_TileColorIndex: 0
      m_TileObjectToInstantiateIndex: 65535
      dummyAlignment: 0
      m_AllTileFlags: 1073741825
  - first: {x: 0, y: -10, z: 0}
    second:
      serializedVersion: 2
      m_TileIndex: 18
      m_TileSpriteIndex: 18
      m_TileMatrixIndex: 0
      m_TileColorIndex: 0
      m_TileObjectToInstantiateIndex: 65535
      dummyAlignment: 0
      m_AllTileFlags: 1073741825
  - first: {x: 1, y: -10, z: 0}
    second:
      serializedVersion: 2
      m_TileIndex: 19
      m_TileSpriteIndex: 19
      m_TileMatrixIndex: 0
      m_TileColorIndex: 0
      m_TileObjectToInstantiateIndex: 65535
      dummyAlignment: 0
      m_AllTileFlags: 1073741825
  - first: {x: -2, y: -9, z: 0}
    second:
      serializedVersion: 2
      m_TileIndex: 13
      m_TileSpriteIndex: 13
      m_TileMatrixIndex: 0
      m_TileColorIndex: 0
      m_TileObjectToInstantiateIndex: 65535
      dummyAlignment: 0
      m_AllTileFlags: 1073741825
  - first: {x: -1, y: -9, z: 0}
    second:
      serializedVersion: 2
      m_TileIndex: 14
      m_TileSpriteIndex: 14
      m_TileMatrixIndex: 0
      m_TileColorIndex: 0
      m_TileObjectToInstantiateIndex: 65535
      dummyAlignment: 0
      m_AllTileFlags: 1073741825
  - first: {x: 0, y: -9, z: 0}
    second:
      serializedVersion: 2
      m_TileIndex: 15
      m_TileSpriteIndex: 15
      m_TileMatrixIndex: 0
      m_TileColorIndex: 0
      m_TileObjectToInstantiateIndex: 65535
      dummyAlignment: 0
      m_AllTileFlags: 1073741825
  - first: {x: 1, y: -9, z: 0}
    second:
      serializedVersion: 2
      m_TileIndex: 16
      m_TileSpriteIndex: 16
      m_TileMatrixIndex: 0
      m_TileColorIndex: 0
      m_TileObjectToInstantiateIndex: 65535
      dummyAlignment: 0
      m_AllTileFlags: 1073741825
  - first: {x: -2, y: -8, z: 0}
    second:
      serializedVersion: 2
      m_TileIndex: 8
      m_TileSpriteIndex: 8
      m_TileMatrixIndex: 0
      m_TileColorIndex: 0
      m_TileObjectToInstantiateIndex: 65535
      dummyAlignment: 0
      m_AllTileFlags: 1073741825
  - first: {x: -1, y: -8, z: 0}
    second:
      serializedVersion: 2
      m_TileIndex: 9
      m_TileSpriteIndex: 9
      m_TileMatrixIndex: 0
      m_TileColorIndex: 0
      m_TileObjectToInstantiateIndex: 65535
      dummyAlignment: 0
      m_AllTileFlags: 1073741825
  - first: {x: 0, y: -8, z: 0}
    second:
      serializedVersion: 2
      m_TileIndex: 10
      m_TileSpriteIndex: 10
      m_TileMatrixIndex: 0
      m_TileColorIndex: 0
      m_TileObjectToInstantiateIndex: 65535
      dummyAlignment: 0
      m_AllTileFlags: 1073741825
  - first: {x: 1, y: -8, z: 0}
    second:
      serializedVersion: 2
      m_TileIndex: 11
      m_TileSpriteIndex: 11
      m_TileMatrixIndex: 0
      m_TileColorIndex: 0
      m_TileObjectToInstantiateIndex: 65535
      dummyAlignment: 0
      m_AllTileFlags: 1073741825
  - first: {x: 2, y: -8, z: 0}
    second:
      serializedVersion: 2
      m_TileIndex: 12
      m_TileSpriteIndex: 12
      m_TileMatrixIndex: 0
      m_TileColorIndex: 0
      m_TileObjectToInstantiateIndex: 65535
      dummyAlignment: 0
      m_AllTileFlags: 1073741825
  - first: {x: -2, y: -7, z: 0}
    second:
      serializedVersion: 2
      m_TileIndex: 3
      m_TileSpriteIndex: 3
      m_TileMatrixIndex: 0
      m_TileColorIndex: 0
      m_TileObjectToInstantiateIndex: 65535
      dummyAlignment: 0
      m_AllTileFlags: 1073741825
  - first: {x: -1, y: -7, z: 0}
    second:
      serializedVersion: 2
      m_TileIndex: 4
      m_TileSpriteIndex: 4
      m_TileMatrixIndex: 0
      m_TileColorIndex: 0
      m_TileObjectToInstantiateIndex: 65535
      dummyAlignment: 0
      m_AllTileFlags: 1073741825
  - first: {x: 0, y: -7, z: 0}
    second:
      serializedVersion: 2
      m_TileIndex: 5
      m_TileSpriteIndex: 5
      m_TileMatrixIndex: 0
      m_TileColorIndex: 0
      m_TileObjectToInstantiateIndex: 65535
      dummyAlignment: 0
      m_AllTileFlags: 1073741825
  - first: {x: 1, y: -7, z: 0}
    second:
      serializedVersion: 2
      m_TileIndex: 6
      m_TileSpriteIndex: 6
      m_TileMatrixIndex: 0
      m_TileColorIndex: 0
      m_TileObjectToInstantiateIndex: 65535
      dummyAlignment: 0
      m_AllTileFlags: 1073741825
  - first: {x: 2, y: -7, z: 0}
    second:
      serializedVersion: 2
      m_TileIndex: 7
      m_TileSpriteIndex: 7
      m_TileMatrixIndex: 0
      m_TileColorIndex: 0
      m_TileObjectToInstantiateIndex: 65535
      dummyAlignment: 0
      m_AllTileFlags: 1073741825
  - first: {x: -1, y: -6, z: 0}
    second:
      serializedVersion: 2
      m_TileIndex: 0
      m_TileSpriteIndex: 0
      m_TileMatrixIndex: 0
      m_TileColorIndex: 0
      m_TileObjectToInstantiateIndex: 65535
      dummyAlignment: 0
      m_AllTileFlags: 1073741825
  - first: {x: 0, y: -6, z: 0}
    second:
      serializedVersion: 2
      m_TileIndex: 1
      m_TileSpriteIndex: 1
      m_TileMatrixIndex: 0
      m_TileColorIndex: 0
      m_TileObjectToInstantiateIndex: 65535
      dummyAlignment: 0
      m_AllTileFlags: 1073741825
  - first: {x: 1, y: -6, z: 0}
    second:
      serializedVersion: 2
      m_TileIndex: 2
      m_TileSpriteIndex: 2
      m_TileMatrixIndex: 0
      m_TileColorIndex: 0
      m_TileObjectToInstantiateIndex: 65535
      dummyAlignment: 0
      m_AllTileFlags: 1073741825
  m_AnimatedTiles: {}
  m_TileAssetArray:
  - m_RefCount: 1
    m_Data: {fileID: 11400000, guid: b49eff3c9c9d6df4599e56571cde2ee8, type: 2}
  - m_RefCount: 1
    m_Data: {fileID: 11400000, guid: 2ad5ade6af77bf745af679b0e0026d93, type: 2}
  - m_RefCount: 1
    m_Data: {fileID: 11400000, guid: 9ad5d012ca1d3d547a9bbaa713f25526, type: 2}
  - m_RefCount: 1
    m_Data: {fileID: 11400000, guid: b47ecda5f04ca1e43835a9a507e8908e, type: 2}
  - m_RefCount: 1
    m_Data: {fileID: 11400000, guid: 5acdb23651d3b494a866cd4c85a9bafa, type: 2}
  - m_RefCount: 1
    m_Data: {fileID: 11400000, guid: 089fc26633854fd418893244d5c763b2, type: 2}
  - m_RefCount: 1
    m_Data: {fileID: 11400000, guid: 353a2b4f3fbec0347bcd7aa16961f2b7, type: 2}
  - m_RefCount: 1
    m_Data: {fileID: 11400000, guid: d54f5db2812d0e641ba5649227b74c5c, type: 2}
  - m_RefCount: 1
    m_Data: {fileID: 11400000, guid: 003891998eefac54e9e1c760fddb0b33, type: 2}
  - m_RefCount: 1
    m_Data: {fileID: 11400000, guid: a03e567b43085d848ba2578c825d935b, type: 2}
  - m_RefCount: 1
    m_Data: {fileID: 11400000, guid: a48e8fb1c94292645acdeb1baf153188, type: 2}
  - m_RefCount: 1
    m_Data: {fileID: 11400000, guid: 5bb18d3eaf452dd4d96972a817c21017, type: 2}
  - m_RefCount: 1
    m_Data: {fileID: 11400000, guid: d20f6df8e7d9ead439b5a1c2cbfd27cc, type: 2}
  - m_RefCount: 1
    m_Data: {fileID: 11400000, guid: cd158ce15fcee4145b035afc3a2d4876, type: 2}
  - m_RefCount: 1
    m_Data: {fileID: 11400000, guid: 9ab660c67b649d542a7362911e4a8da0, type: 2}
  - m_RefCount: 1
    m_Data: {fileID: 11400000, guid: cb3f0dd3e40106f4fbe858bf57923572, type: 2}
  - m_RefCount: 1
    m_Data: {fileID: 11400000, guid: d8c4aab8d96246949ba1c40e7b5a141b, type: 2}
  - m_RefCount: 1
    m_Data: {fileID: 11400000, guid: 63ab11421fe75534299b563ee4f624ba, type: 2}
  - m_RefCount: 1
    m_Data: {fileID: 11400000, guid: 7ec547b82f2ed3549b3810c63f451cc4, type: 2}
  - m_RefCount: 1
    m_Data: {fileID: 11400000, guid: 5b8c2624e3ed2a54ca189f794a7856ca, type: 2}
  m_TileSpriteArray:
  - m_RefCount: 1
    m_Data: {fileID: 1491097479, guid: 46c429c85a1a9b547a624e809ab2f4c7, type: 3}
  - m_RefCount: 1
    m_Data: {fileID: 1483206461, guid: 46c429c85a1a9b547a624e809ab2f4c7, type: 3}
  - m_RefCount: 1
    m_Data: {fileID: 1151035037, guid: 46c429c85a1a9b547a624e809ab2f4c7, type: 3}
  - m_RefCount: 1
    m_Data: {fileID: -664223975, guid: 46c429c85a1a9b547a624e809ab2f4c7, type: 3}
  - m_RefCount: 1
    m_Data: {fileID: -883073372, guid: 46c429c85a1a9b547a624e809ab2f4c7, type: 3}
  - m_RefCount: 1
    m_Data: {fileID: 289813681, guid: 46c429c85a1a9b547a624e809ab2f4c7, type: 3}
  - m_RefCount: 1
    m_Data: {fileID: 1763629585, guid: 46c429c85a1a9b547a624e809ab2f4c7, type: 3}
  - m_RefCount: 1
    m_Data: {fileID: -1818221366, guid: 46c429c85a1a9b547a624e809ab2f4c7, type: 3}
  - m_RefCount: 1
    m_Data: {fileID: -14990650, guid: 46c429c85a1a9b547a624e809ab2f4c7, type: 3}
  - m_RefCount: 1
    m_Data: {fileID: -793906666, guid: 46c429c85a1a9b547a624e809ab2f4c7, type: 3}
  - m_RefCount: 1
    m_Data: {fileID: 454954453, guid: 46c429c85a1a9b547a624e809ab2f4c7, type: 3}
  - m_RefCount: 1
    m_Data: {fileID: 1480591225, guid: 46c429c85a1a9b547a624e809ab2f4c7, type: 3}
  - m_RefCount: 1
    m_Data: {fileID: 1298626114, guid: 46c429c85a1a9b547a624e809ab2f4c7, type: 3}
  - m_RefCount: 1
    m_Data: {fileID: 1115567024, guid: 46c429c85a1a9b547a624e809ab2f4c7, type: 3}
  - m_RefCount: 1
    m_Data: {fileID: 842386725, guid: 46c429c85a1a9b547a624e809ab2f4c7, type: 3}
  - m_RefCount: 1
    m_Data: {fileID: 185080097, guid: 46c429c85a1a9b547a624e809ab2f4c7, type: 3}
  - m_RefCount: 1
    m_Data: {fileID: 361204225, guid: 46c429c85a1a9b547a624e809ab2f4c7, type: 3}
  - m_RefCount: 1
    m_Data: {fileID: 1671257467, guid: 46c429c85a1a9b547a624e809ab2f4c7, type: 3}
  - m_RefCount: 1
    m_Data: {fileID: -338621185, guid: 46c429c85a1a9b547a624e809ab2f4c7, type: 3}
  - m_RefCount: 1
    m_Data: {fileID: -398913878, guid: 46c429c85a1a9b547a624e809ab2f4c7, type: 3}
  m_TileMatrixArray:
  - m_RefCount: 20
    m_Data:
      e00: 1
      e01: 0
      e02: 0
      e03: 0
      e10: 0
      e11: 1
      e12: 0
      e13: 0
      e20: 0
      e21: 0
      e22: 1
      e23: 0
      e30: 0
      e31: 0
      e32: 0
      e33: 1
  m_TileColorArray:
  - m_RefCount: 20
    m_Data: {r: 1, g: 1, b: 1, a: 1}
  m_TileObjectToInstantiateArray: []
  m_AnimationFrameRate: 1
  m_Color: {r: 1, g: 1, b: 1, a: 1}
  m_Origin: {x: -2, y: -10, z: 0}
  m_Size: {x: 5, y: 10, z: 1}
  m_TileAnchor: {x: 0.5, y: 0.5, z: 0}
  m_TileOrientation: 0
  m_TileOrientationMatrix:
    e00: 1
    e01: 0
    e02: 0
    e03: 0
    e10: 0
    e11: 1
    e12: 0
    e13: 0
    e20: 0
    e21: 0
    e22: 1
    e23: 0
    e30: 0
    e31: 0
    e32: 0
    e33: 1
--- !u!483693784 &6621908864063126811
TilemapRenderer:
  m_ObjectHideFlags: 0
  m_CorrespondingSourceObject: {fileID: 0}
  m_PrefabInstance: {fileID: 0}
  m_PrefabAsset: {fileID: 0}
  m_GameObject: {fileID: 4527427120711901791}
  m_Enabled: 1
  m_CastShadows: 0
  m_ReceiveShadows: 0
  m_DynamicOccludee: 0
  m_StaticShadowCaster: 0
  m_MotionVectors: 1
  m_LightProbeUsage: 0
  m_ReflectionProbeUsage: 0
  m_RayTracingMode: 0
  m_RayTraceProcedural: 0
  m_RenderingLayerMask: 1
  m_RendererPriority: 0
  m_Materials:
  - {fileID: 10754, guid: 0000000000000000f000000000000000, type: 0}
  m_StaticBatchInfo:
    firstSubMesh: 0
    subMeshCount: 0
  m_StaticBatchRoot: {fileID: 0}
  m_ProbeAnchor: {fileID: 0}
  m_LightProbeVolumeOverride: {fileID: 0}
  m_ScaleInLightmap: 1
  m_ReceiveGI: 1
  m_PreserveUVs: 0
  m_IgnoreNormalsForChartDetection: 0
  m_ImportantGI: 0
  m_StitchLightmapSeams: 1
  m_SelectedEditorRenderState: 0
  m_MinimumChartSize: 4
  m_AutoUVMaxDistance: 0.5
  m_AutoUVMaxAngle: 89
  m_LightmapParameters: {fileID: 0}
  m_SortingLayerID: 0
  m_SortingLayer: 0
  m_SortingOrder: 0
  m_ChunkSize: {x: 32, y: 32, z: 32}
  m_ChunkCullingBounds: {x: 0, y: 0, z: 0}
  m_MaxChunkCount: 16
  m_MaxFrameAge: 16
  m_SortOrder: 0
  m_Mode: 0
  m_DetectChunkCullingBounds: 0
  m_MaskInteraction: 0
--- !u!114 &1105433342285676130
MonoBehaviour:
  m_ObjectHideFlags: 0
  m_CorrespondingSourceObject: {fileID: 0}
  m_PrefabInstance: {fileID: 0}
  m_PrefabAsset: {fileID: 0}
  m_GameObject: {fileID: 0}
  m_Enabled: 1
  m_EditorHideFlags: 0
  m_Script: {fileID: 12395, guid: 0000000000000000e000000000000000, type: 0}
  m_Name: Palette Settings
  m_EditorClassIdentifier: 
  cellSizing: 0
  m_TransparencySortMode: 0
  m_TransparencySortAxis: {x: 0, y: 0, z: 1}
